Lab: Choropleth Map
…
Animated maps.

library(magick);
img=image_graph(width=600,height=400,res=96);
for( i in 1:28) print(PlotCountyRate(i+1989));
dev.off();

## png 
##   2

CountyRateAnimation = image_animate(img, fps = 1);
print(CountyRateAnimation);

## # A tibble: 28 x 7
##    format width height colorspace matte filesize density
##    <chr>  <int>  <int> <chr>      <lgl>    <int> <chr>  
##  1 gif      600    400 sRGB       TRUE         0 72x72  
##  2 gif      600    400 sRGB       TRUE         0 72x72  
##  3 gif      600    400 sRGB       TRUE         0 72x72  
##  4 gif      600    400 sRGB       TRUE         0 72x72  
##  5 gif      600    400 sRGB       TRUE         0 72x72  
##  6 gif      600    400 sRGB       TRUE         0 72x72  
##  7 gif      600    400 sRGB       TRUE         0 72x72  
##  8 gif      600    400 sRGB       TRUE         0 72x72  
##  9 gif      600    400 sRGB       TRUE         0 72x72  
## 10 gif      600    400 sRGB       TRUE         0 72x72  
## # ... with 18 more rows
…
