Lab: Creating Animated Graphics
…
## geom_path: Each group consists of only one observation. Do you need to
## adjust the group aesthetic?

dev.off();

## png 
##   2

img_animation =image_animate(img, fps = 2);
print(img_animation);

## # A tibble: 26 x 7
##    format width height colorspace matte filesize density
##    <chr>  <int>  <int> <chr>      <lgl>    <int> <chr>  
##  1 gif      600    400 sRGB       TRUE         0 72x72  
##  2 gif      600    400 sRGB       TRUE         0 72x72  
##  3 gif      600    400 sRGB       TRUE         0 72x72  
##  4 gif      600    400 sRGB       TRUE         0 72x72  
##  5 gif      600    400 sRGB       TRUE         0 72x72  
##  6 gif      600    400 sRGB       TRUE         0 72x72  
##  7 gif      600    400 sRGB       TRUE         0 72x72  
##  8 gif      600    400 sRGB       TRUE         0 72x72  
##  9 gif      600    400 sRGB       TRUE         0 72x72  
## 10 gif      600    400 sRGB       TRUE         0 72x72  
## # ... with 16 more rows
…
